{
  "project_info": {
    "project_number": "407683245394",
    "firebase_url": "https://envizion-94a16.firebaseio.com",
    "project_id": "envizion-94a16",
    "storage_bucket": "envizion-94a16.appspot.com"
  },
  "client": [
    {
      "client_info": {
        "mobilesdk_app_id": "1:407683245394:android:9bb61261f3863550",
        "android_client_info": {
          "package_name": "com.csusb.envizion"
        }
      },
      "oauth_client": [
        {
          "client_id": "407683245394-7o4lbpejfenshcsoshomqqm4q57ohlio.apps.googleusercontent.com",
          "client_type": 3
        }
      ],
      "api_key": [
        {
          "current_key": "AIzaSyAqDnsz4i5hQaOzBlTx_6i3M5l4PALL85o"
        }
      ],
      "services": {
        "appinvite_service": {
          "other_platform_oauth_client": [
            {
              "client_id": "407683245394-7o4lbpejfenshcsoshomqqm4q57ohlio.apps.googleusercontent.com",
              "client_type": 3
            },
            {
              "client_id": "407683245394-bjdlpqta5lq0fs0vkone65m2mh3sr797.apps.googleusercontent.com",
              "client_type": 2,
              "ios_info": {
                "bundle_id": "com.csusb.envizion"
              }
            }
          ]
        }
      }
    }
  ],
  "configuration_version": "1"
}